<svg xmlns="http://www.w3.org/2000/svg" width="30" height="26" viewBox="0 0 30 26">
  <g fill="#FFF" fill-rule="evenodd">
    <path fill-rule="nonzero" d="M4.34442752,17.3444275 L8.62407862,17.3444275 C11.019656,17.3444275 12.9685061,15.3955135 12.9685061,13 C12.9685061,10.6044865 11.019656,8.65557248 8.62407862,8.65557248 L4.34442752,8.65557248 C1.948914,8.65557248 0,10.6044865 0,13 C0,15.3955135 1.948914,17.3444275 4.34442752,17.3444275 Z M8.62407862,9.61380344 C10.4912875,9.61380344 12.0102752,11.132855 12.0102752,13 C12.0102752,14.867145 10.4912875,16.3861966 8.62407862,16.3861966 L7.06171499,16.3861966 C8.05284521,15.5892678 8.68885504,14.3678428 8.68885504,13 C8.68885504,11.6321572 8.05284521,10.4107322 7.06171499,9.61380344 L8.62407862,9.61380344 Z M4.34442752,9.61380344 C6.21157248,9.61380344 7.73062408,11.132855 7.73062408,13 C7.73062408,14.867145 6.21157248,16.3861966 4.34442752,16.3861966 C2.47728256,16.3861966 0.958230958,14.867145 0.958230958,13 C0.958230958,11.132855 2.47728256,9.61380344 4.34442752,9.61380344 Z"/>
    <path fill-rule="nonzero" d="M4.34442752,15.4275184 C5.6829484,15.4275184 6.77194595,14.3385209 6.77194595,13 C6.77194595,11.6614791 5.6829484,10.5724816 4.34442752,10.5724816 C3.00590663,10.5724816 1.91690909,11.6614791 1.91690909,13 C1.91690909,14.3385209 3.00590663,15.4275184 4.34442752,15.4275184 Z M4.34442752,11.5307125 C5.15457985,11.5307125 5.81371499,12.1898477 5.81371499,13 C5.81371499,13.8101523 5.15457985,14.4692875 4.34442752,14.4692875 C3.53427518,14.4692875 2.87514005,13.8101523 2.87514005,13 C2.87514005,12.1898477 3.53427518,11.5307125 4.34442752,11.5307125 Z"/>
    <path fill-rule="nonzero" d="M29.2260442,24.9938575 L27.7886978,24.9938575 L27.7886978,0.527027027 C27.7886978,0.262427518 27.5742457,0.0479115479 27.3095823,0.0479115479 L14.8525799,0.0479115479 L2.3955774,0.0479115479 C2.13097789,0.0479115479 1.91646192,0.262427518 1.91646192,0.527027027 L1.91646192,7.58599509 C1.91646192,7.85059459 2.13097789,8.06511057 2.3955774,8.06511057 C2.6601769,8.06511057 2.87469287,7.85059459 2.87469287,7.58599509 L2.87469287,1.00614251 L14.3734644,1.00614251 L14.3734644,24.9938575 L2.87469287,24.9938575 L2.87469287,18.2549386 C2.87469287,17.9903391 2.6601769,17.7758231 2.3955774,17.7758231 C2.13097789,17.7758231 1.91646192,17.9903391 1.91646192,18.2549386 L1.91646192,24.9938575 L0.479115479,24.9938575 C0.214515971,24.9938575 0,25.2083735 0,25.472973 C0,25.7375725 0.214515971,25.9520885 0.479115479,25.9520885 L29.2260442,25.9520885 C29.4907076,25.9520885 29.7051597,25.7375725 29.7051597,25.472973 C29.7051597,25.2083735 29.4907076,24.9938575 29.2260442,24.9938575 Z M15.3316953,1.00614251 L26.8304668,1.00614251 L26.8304668,24.9938575 L15.3316953,24.9938575 L15.3316953,1.00614251 Z"/>
    <path d="M24.7542998,9.98157248 C25.0189631,9.98157248 25.2334152,9.76705651 25.2334152,9.502457 L25.2334152,3.08230958 C25.2334152,2.81771007 25.0189631,2.6031941 24.7542998,2.6031941 L17.4078624,2.6031941 C17.143199,2.6031941 16.9287469,2.81771007 16.9287469,3.08230958 L16.9287469,22.9176904 C16.9287469,23.1822899 17.143199,23.3968059 17.4078624,23.3968059 L24.7542998,23.3968059 C25.0189631,23.3968059 25.2334152,23.1822899 25.2334152,22.9176904 L25.2334152,11.4189189 C25.2334152,11.1543194 25.0189631,10.9398034 24.7542998,10.9398034 C24.4896364,10.9398034 24.2751843,11.1543194 24.2751843,11.4189189 L24.2751843,22.4385749 L17.8869779,22.4385749 L17.8869779,3.56142506 L24.2751843,3.56142506 L24.2751843,9.502457 C24.2751843,9.76705651 24.4896364,9.98157248 24.7542998,9.98157248 Z"/>
  </g>
</svg>
