<?xml version="1.0" encoding="UTF-8"?>
<svg width="105px" height="105px" viewBox="0 0 105 105" version="1.1" xmlns="http://www.w3.org/2000/svg" xmlns:xlink="http://www.w3.org/1999/xlink">
    <!-- Generator: Sketch 52.5 (67469) - http://www.bohemiancoding.com/sketch -->
    <title>Group 5 Copy</title>
    <desc>Created with Sketch.</desc>
    <g id="Page-1" stroke="none" stroke-width="1" fill="none" fill-rule="evenodd">
        <g id="Group-7" transform="translate(-146.000000, -40.000000)">
            <g id="Group-5-Copy" transform="translate(146.000000, 40.000000)">
                <circle id="Oval" fill="#F0F3F5" fill-rule="nonzero" cx="52.5" cy="52.5" r="52.5"></circle>
                <path d="M68.0831097,35.3554549 L37.1698481,35.3554549 C33.9135811,35.3554549 31.283038,37.9862428 31.283038,41.2428127 L34.4717268,75.1126422 C34.4717268,78.3692121 37.1097786,81 40.356034,81 L65.3849884,81 C68.6312438,81 71.2717985,78.3692121 71.2717985,75.1126422 L73.9699198,41.2428127 C73.9699198,37.9862428 71.3293651,35.3554549 68.0831097,35.3554549 Z M44.7761473,70.6946207 C44.7761473,72.3166478 43.4571214,73.6357965 41.8327423,73.6357965 C40.2008544,73.6357965 38.8893372,72.3166478 38.8893372,70.6946207 L38.8893372,44.1864916 C38.8893372,42.5619614 40.2008544,41.2428127 41.8327423,41.2428127 C43.4571214,41.2428127 44.7761473,42.5619614 44.7761473,44.1864916 L44.7761473,70.6946207 Z M55.0805679,70.6946207 C55.0805679,72.3166478 53.761542,73.6357965 52.1371628,73.6357965 C50.505275,73.6357965 49.1962607,72.3166478 49.1962607,70.6946207 L49.1962607,44.1864916 C49.1962607,42.5619614 50.505275,41.2428127 52.1371628,41.2428127 C53.761542,41.2428127 55.0805679,42.5619614 55.0805679,44.1864916 L55.0805679,70.6946207 Z M65.3849884,70.6946207 C65.3849884,72.3166478 64.0659625,73.6357965 62.4415834,73.6357965 C60.8096955,73.6357965 59.5006812,72.3166478 59.5006812,70.6946207 L59.5006812,44.1864916 C59.5006812,42.5619614 60.8096955,41.2428127 62.4415834,41.2428127 C64.0659625,41.2428127 65.3849884,42.5619614 65.3849884,44.1864916 L65.3849884,70.6946207 Z M35.5955268,32.4142791 L71.2317522,23.2428169 C73.2065367,22.7421912 74.3904062,20.7296761 73.8823184,18.7622172 C73.3742307,16.7972615 71.3694114,15.6157849 69.4046385,16.1139074 L58.4444593,18.9299268 C57.4357925,17.4230435 55.5586209,16.632055 53.7014725,17.1101525 L49.4290299,18.2165352 C47.5718815,18.6946327 46.3104222,20.2891255 46.1452311,22.0988873 L33.7659102,25.2853696 C31.7911257,25.7935047 30.6097591,27.7985105 31.1178469,29.7634662 C31.6259346,31.7384345 33.6307539,32.9124016 35.5955268,32.4142791 Z" id="delete" fill="#354053"></path>
            </g>
        </g>
    </g>
</svg>