[
    {
        "id": "R220",
        "restaurantName": "Patang Restaurant",
        "type": "multi cuisine",
        "OpeningTime": "1538352000000",
        "closingTime": "1541153053598",
        "totalCapacity":"200",
        "status": "ACTIVE"
    },
    {
        "id": "R221",
        "restaurantName": "Mangos Restaurant",
        "type": "multi cuisine",
        "OpeningTime": "1538352000000",
        "closingTime": "1541153053598",
        "totalCapacity":"400",
        "status": "INACTIVE"
    },
    {
        "id": "R222",
        "restaurantName": "Havmor 1944 Restaurant",
        "type": "Restaurant",
        "OpeningTime": "1538352000000",
        "closingTime": "1541153053598",
        "totalCapacity":"500",
        "status": "ACTIVE"
    },
    {
        "id": "R223",
        "restaurantName": "Havmor 1944 Restaurant",
        "type": "Restaurant & Bar",
        "OpeningTime": "1538352000000",
        "closingTime": "1541153053598",
        "totalCapacity":"500",
        "status": "ACTIVE"
    },
    {
        "id": "R224",
        "restaurantName": "Patang Restaurant",
        "type": "Restaurant",
        "OpeningTime": "1538352000000",
        "closingTime": "1541153053598",
        "totalCapacity":"200",
        "status": "INACTIVE"
    },
    {
        "id": "IC225",
        "restaurantName": "Patang Restaurant",
        "type": "Bar",
        "OpeningTime": "1538352000000",
        "closingTime": "1541153053598",
        "totalCapacity":"550",
        "status": "ACTIVE"
    },
    {
        "id": "R226",
        "restaurantName": "Mangos Restaurant",
        "type": "Restaurant",
        "OpeningTime": "1538352000000",
        "closingTime": "1541153053598",
        "totalCapacity":"500",
        "status": "INACTIVE"
    },
    {
        "id": "R227",
        "restaurantName": "Full Day City Tour",
        "type": "Restaurant",
        "OpeningTime": "1538352000000",
        "closingTime": "1541153053598",
        "totalCapacity":"1000",
        "status": "ACTIVE"
    },
    {
        "id": "R228",
        "restaurantName": "Honest Restaurant",
        "vendor": "Grand American Adventures",
        "type": "Restaurant",
        "OpeningTime": "1538352000000",
        "closingTime": "1541153053598",
        "totalCapacity":"400",
        "status": "ACTIVE"
    },
    {
        "id": "R229",
        "restaurantName": "Mangos Restaurant",
        "type": "Restaurant & Bar",
        "OpeningTime": "1538352000000",
        "closingTime": "1541153053598",
        "totalCapacity":"800",
        "status": "ACTIVE"
    },
    {
        "id": "R230",
        "restaurantName": "Full Day City Restaurant",
        "vendor": "Grand American Adventures",
        "type": "Restaurant",
        "OpeningTime": "1538352000000",
        "closingTime": "1541153053598",
        "totalCapacity":"600",
        "status": "ACTIVE"
    }
]